{
  "project_info": {
    "project_number": "472087078193",
    "firebase_url": "https://lullabies-8e19c.firebaseio.com",
    "project_id": "lullabies-8e19c",
    "storage_bucket": "lullabies-8e19c.appspot.com"
  },
  "client": [
    {
      "client_info": {
        "mobilesdk_app_id": "1:472087078193:android:e3b239fd40f6783d",
        "android_client_info": {
          "package_name": "com.josiassena.babylullabies"
        }
      },
      "oauth_client": [
        {
          "client_id": "472087078193-h5qbl37n7777a0g1s4tsebhoj5e4i0s2.apps.googleusercontent.com",
          "client_type": 3
        }
      ],
      "api_key": [
        {
          "current_key": "AIzaSyDjk5QHu7ejo8mDrP3K-R-Z-iwDY1eE6-s"
        }
      ],
      "services": {
        "analytics_service": {
          "status": 1
        },
        "appinvite_service": {
          "status": 1,
          "other_platform_oauth_client": []
        },
        "ads_service": {
          "status": 2
        }
      }
    }
  ],
  "configuration_version": "1"
}